<?xml version="1.0" encoding="utf-8"?>
<!-- Generator: Adobe Illustrator 25.1.0, SVG Export Plug-In . SVG Version: 6.00 Build 0)  -->
<svg version="1.1" id="Layer_1" xmlns="http://www.w3.org/2000/svg" xmlns:xlink="http://www.w3.org/1999/xlink" x="0px" y="0px"
	 viewBox="0 0 100 100" style="enable-background:new 0 0 100 100;" xml:space="preserve">
<style type="text/css">
	.st0{fill:#151312;}
</style>
<path class="st0" d="M78.6,20c-13.5-0.9-43.5-0.9-56.9,0C7.2,21,5.4,29.8,5.3,53c0.1,23.1,1.8,31.9,16.4,32.9
	c13.5,0.9,43.4,0.9,56.9,0c14.6-1,16.3-9.8,16.4-32.9C94.9,29.9,93.2,21,78.6,20z M38.3,67.9V38l29.9,14.9L38.3,67.9z"/>
</svg>
