<?xml version="1.0" encoding="utf-8"?>
<!-- Generator: Adobe Illustrator 25.1.0, SVG Export Plug-In . SVG Version: 6.00 Build 0)  -->
<svg version="1.1" id="Layer_1" xmlns="http://www.w3.org/2000/svg" xmlns:xlink="http://www.w3.org/1999/xlink" x="0px" y="0px"
	 viewBox="0 0 50 50" style="enable-background:new 0 0 50 50;" xml:space="preserve">
<style type="text/css">
	.st0{fill:#151312;}
</style>
<g id="b5ef6d99-fd0f-477d-9a49-c37ddb37f12a">
	<path class="st0" d="M45,12.5c-1.1,1.6-2.5,3.1-4.1,4.3v1c0,2.8-0.5,5.7-1.6,8.3c-1,2.8-2.5,5.3-4.5,7.5c-2,2.3-4.5,4.1-7.3,5.5
		c-3.1,1.4-6.6,2.2-10,2.1c-2.3,0-4.5-0.4-6.7-1c-2.1-0.7-4.1-1.6-6-2.8c0.3,0.1,0.7,0.1,1,0.1H7c3.7,0.1,7.3-1.1,10.1-3.5
		c-1.7,0-3.4-0.6-4.9-1.7c-1.4-1-2.4-2.4-2.9-4.1c0.5,0.1,1,0.2,1.5,0.2c0.4,0,0.7,0,1.1-0.1c0.4-0.1,0.7-0.1,1-0.2
		c-1.9-0.4-3.5-1.4-4.8-2.9c-1.2-1.5-1.9-3.3-1.9-5.2v-0.1c0.6,0.3,1.1,0.5,1.7,0.7c0.7,0.2,1.4,0.3,2.1,0.3c-1-0.7-1.9-1.7-2.5-2.8
		c-0.6-1.2-1-2.6-0.9-4c0-1.5,0.4-2.9,1.1-4.2c2.1,2.5,4.6,4.6,7.5,6.2c2.9,1.5,6.2,2.4,9.5,2.5c-0.2-0.6-0.2-1.1-0.2-1.7
		c0-1.1,0.2-2.2,0.6-3.2c0.4-1,1-1.9,1.7-2.7c0.8-0.7,1.6-1.3,2.6-1.7c1-0.4,2.1-0.6,3.2-0.6c1.2,0,2.3,0.2,3.4,0.7
		c1,0.5,1.9,1.1,2.7,1.9c1-0.1,1.9-0.4,2.8-0.8c1-0.4,1.7-0.8,2.5-1.1c-0.7,1.9-2,3.4-3.6,4.5c0.8-0.1,1.6-0.3,2.4-0.5
		C43.6,13.1,44.3,12.8,45,12.5z"/>
</g>
</svg>
