<?xml version="1.0" encoding="utf-8"?>
<!-- Generator: Adobe Illustrator 25.1.0, SVG Export Plug-In . SVG Version: 6.00 Build 0)  -->
<svg version="1.1" id="Layer_1" xmlns="http://www.w3.org/2000/svg" xmlns:xlink="http://www.w3.org/1999/xlink" x="0px" y="0px"
	 viewBox="0 0 50 50" style="enable-background:new 0 0 50 50;" xml:space="preserve">
<style type="text/css">
	.st0{fill:#151312;}
</style>
<g id="abf7c095-13b0-4a9f-a9e1-53e7e7216bec">
	<path class="st0" d="M5,11.3c0-0.6,0.1-1.2,0.3-1.7c0.2-0.5,0.6-1,1-1.3c0.5-0.3,1-0.6,1.5-0.8c0.6-0.2,1.3-0.3,2-0.3
		c0.6,0,1.2,0.1,1.7,0.3C12,7.7,12.5,8,12.8,8.4c0.4,0.4,0.6,0.8,0.8,1.3c0.2,0.5,0.3,1.1,0.3,1.6c0,1.1-0.4,2.2-1.2,2.9
		c-0.9,0.8-2.1,1.3-3.3,1.2l0,0c-1.2,0.1-2.4-0.4-3.2-1.2C5.4,13.5,5,12.4,5,11.3z M5.5,42.8v-24h8.6v24H5.5z M27.4,22.4
		c0.3-0.4,0.6-0.9,1-1.4c0.5-0.5,1-1,1.5-1.4c0.7-0.5,1.4-0.8,2.2-1c1-0.3,2-0.4,3-0.4c1.3,0,2.7,0.2,3.9,0.6c1.2,0.4,2.3,1.1,3.1,2
		c0.9,0.9,1.7,2.1,2.1,3.3c0.5,1.6,0.8,3.2,0.7,4.8v13.9h-8.5V30.2c0-0.7-0.1-1.5-0.2-2.2c-0.2-0.6-0.4-1.2-0.8-1.7
		c-0.3-0.5-0.8-0.9-1.3-1.1c-0.6-0.3-1.3-0.4-2-0.4c-1,0-2.1,0.3-2.9,0.9c-0.6,0.5-1.2,1.2-1.5,1.9c-0.1,0.3-0.2,0.6-0.2,0.9
		c0,0.3-0.1,0.7-0.1,1v13.1h-8.6V18.5h8.6V22.4"/>
</g>
</svg>
